tidyverse
…
ttc <-read_csv("data/ttc.csv") #The Toronto Transit Commission Data.

## Parsed with column specification:
## cols(
##   .default = col_integer(),
##   `FARE MEDIA` = col_character()
## )

## See spec(...) for full column specifications.

ttc #tibble produced if use read_csv versus dataframe. Tibbles include str() list of vector attributes at the top of output.

## # A tibble: 31 x 32
##            `FARE MEDIA` `2015` `2014` `2013` `2012` `2011` `2010` `2009`
##                   <chr>  <int>  <int>  <int>  <int>  <int>  <int>  <int>
##  1                ADULT     NA     NA     NA     NA     NA     NA     NA
##  2               TOKENS 110945 111157 112360 117962 124748 120366 114686
##  3              TICKETS     NA     NA     NA     NA     NA   1298   8807
##  4             TWO-FARE     NA     NA     NA     NA     NA     NA     NA
##  5               PRESTO  13323   9862   8194   4399   1139      0      0
##  6 REGULAR MONTHLY PASS 204509 214932 213982 205086 194928 203101 208172
##  7  POST-SECONDARY PASS  48396  42855  38426  35019  32091   9200     NA
##  8         TWIN-GO PASS     NA     NA     NA     NA     NA     NA     NA
##  9          WEEKLY PASS   8843   9361   9557  10185   9893   9237   8738
## 10                 CASH  48873  49120  48623  46467  43795  43149  41445
## # ... with 21 more rows, and 24 more variables: `2008` <int>,
## #   `2007` <int>, `2006` <int>, `2005` <int>, `2004` <int>, `2003` <int>,
## #   `2002` <int>, `2001` <int>, `2000` <int>, `1999` <int>, `1998` <int>,
## #   `1997` <int>, `1996` <int>, `1995` <int>, `1994` <int>, `1993` <int>,
## #   `1992` <int>, `1991` <int>, `1990` <int>, `1989` <int>, `1988` <int>,
## #   `1987` <int>, `1986` <int>, `1985` <int>
…
library(tidyverse)
data <- starwars #setup as tibble
data #quick look

## # A tibble: 87 x 13
##                  name height  mass    hair_color  skin_color eye_color
##                 <chr>  <int> <dbl>         <chr>       <chr>     <chr>
##  1     Luke Skywalker    172    77         blond        fair      blue
##  2              C-3PO    167    75          <NA>        gold    yellow
##  3              R2-D2     96    32          <NA> white, blue       red
##  4        Darth Vader    202   136          none       white    yellow
##  5        Leia Organa    150    49         brown       light     brown
##  6          Owen Lars    178   120   brown, grey       light      blue
##  7 Beru Whitesun lars    165    75         brown       light      blue
##  8              R5-D4     97    32          <NA>  white, red       red
##  9  Biggs Darklighter    183    84         black       light     brown
## 10     Obi-Wan Kenobi    182    77 auburn, white        fair blue-gray
## # ... with 77 more rows, and 7 more variables: birth_year <dbl>,
## #   gender <chr>, homeworld <chr>, species <chr>, films <list>,
## #   vehicles <list>, starships <list>
…
